<svg width="623" height="623" viewBox="0 0 623 623" fill="none" xmlns="http://www.w3.org/2000/svg">
<circle opacity="0.8" cx="311.5" cy="311.5" r="311.5" fill="#FAFAFA"/>
<path d="M134.74 259.902C143.743 259.902 151.042 252.632 151.042 243.664C151.042 234.696 143.743 227.427 134.74 227.427C125.736 227.427 118.437 234.696 118.437 243.664C118.437 252.632 125.736 259.902 134.74 259.902Z" fill="#1B0066"/>
<path d="M99.7188 302.455V337.577H119.059V302.455C119.059 300.404 119.465 298.373 120.253 296.479C121.041 294.584 122.195 292.862 123.651 291.412C125.107 289.962 126.836 288.812 128.738 288.027C130.64 287.242 132.679 286.838 134.738 286.838C136.797 286.838 138.835 287.242 140.738 288.027C142.64 288.812 144.368 289.962 145.824 291.412C147.28 292.862 148.435 294.584 149.223 296.479C150.011 298.373 150.416 300.404 150.416 302.455V337.577H169.729V302.455C169.476 293.376 165.676 284.753 159.139 278.421C152.602 272.088 143.843 268.546 134.724 268.546C125.605 268.546 116.846 272.088 110.309 278.421C103.772 284.753 99.9725 293.376 99.7188 302.455Z" fill="#1B0066"/>
<path fill-rule="evenodd" clip-rule="evenodd" d="M137.186 349.796C136.08 355.054 134.802 360.132 133.388 364.995C126.675 388.086 116.643 407.16 106.472 417.622L95 406.469C102.642 398.609 111.695 382.299 118.024 360.529C124.291 338.973 127.642 312.873 124.596 285.945L127.286 285.641C127.325 284.372 127.349 283.157 127.349 282L143.349 282C143.349 285.673 143.206 289.396 143.061 293.165C142.443 309.257 141.793 326.185 152.11 343.671C166.873 368.69 174.227 394.735 174.733 415.808L158.737 416.192C158.306 398.226 151.912 374.819 138.33 351.801L145.15 347.778L138.33 351.801C137.936 351.134 137.555 350.465 137.186 349.796Z" fill="#1B0066"/>
<line x1="250.54" y1="100.622" x2="327.621" y2="537.775" stroke="#5133FF" stroke-width="4" stroke-linecap="round" stroke-dasharray="1 12"/>
<path d="M318.527 285.523C300.212 285.291 290.43 278.765 286.883 274.465C286.393 273.871 285.4 273.889 284.969 274.526C277.752 285.194 264.516 286.232 254.761 285.606C254.179 285.568 253.684 286.043 253.684 286.626C253.732 324.638 256.368 337.92 285.888 348.848C319.053 339.337 319.529 325.112 319.535 286.544C319.535 285.991 319.079 285.53 318.527 285.523Z" fill="white" stroke="#5133FF" stroke-width="4"/>
<path d="M273.946 314.806L285.342 321.335L295.724 297.028" stroke="#5133FF" stroke-width="4" stroke-linecap="round"/>
<circle cx="417.691" cy="127.805" r="17.3458" transform="rotate(-65.9517 417.691 127.805)" fill="#44EAAC"/>
<circle cx="499.248" cy="475.3" r="21.5673" transform="rotate(-65.9517 499.248 475.3)" fill="#44EAAC"/>
<circle cx="394.911" cy="232.928" r="21.1925" transform="rotate(-65.9517 394.911 232.928)" fill="#44EAAC"/>
<circle cx="471.262" cy="343.506" r="20.5389" transform="rotate(-65.9517 471.262 343.506)" fill="#44EAAC"/>
<path fill-rule="evenodd" clip-rule="evenodd" d="M406.401 279.035C406.401 275.954 408.917 273.456 412.022 273.456C415.127 273.456 417.643 275.954 417.643 279.035C417.643 282.117 415.127 284.614 412.022 284.614C408.917 284.614 406.401 282.117 406.401 279.035Z" stroke="#1B0066" stroke-width="4" stroke-linecap="round" stroke-linejoin="round"/>
<path fill-rule="evenodd" clip-rule="evenodd" d="M435.627 279.035C435.627 275.954 438.143 273.456 441.248 273.456C444.353 273.456 446.869 275.954 446.869 279.035C446.869 282.117 444.353 284.614 441.248 284.614C438.143 284.614 435.627 282.117 435.627 279.035Z" stroke="#1B0066" stroke-width="4" stroke-linecap="round" stroke-linejoin="round"/>
<path d="M388.416 226.593H396.847L403.923 262.176C404.712 266.139 408.172 268.994 412.19 268.994H444.625" stroke="#1B0066" stroke-width="4" stroke-linecap="round" stroke-linejoin="round"/>
<path d="M399.659 235.52H453.62L447.941 256.943L405.338 262.299" stroke="#1B0066" stroke-width="4" stroke-linecap="round" stroke-linejoin="round"/>
<rect x="404.752" y="356.373" width="69.7542" height="44.1221" rx="2" transform="rotate(-13.3089 404.752 356.373)" stroke="#1B0066" stroke-width="4"/>
<line x1="409.434" y1="369.372" x2="474.261" y2="354.037" stroke="#1B0066" stroke-width="4"/>
<line x1="419.298" y1="380.052" x2="444.766" y2="374.028" stroke="#1B0066" stroke-width="4"/>
<line x1="451.714" y1="372.385" x2="463.29" y2="369.647" stroke="#1B0066" stroke-width="4"/>
<mask id="path-20-inside-1" fill="white">
<path fill-rule="evenodd" clip-rule="evenodd" d="M420.264 471.663C420.793 470.004 422.334 468.877 424.075 468.877H519.416C521.625 468.877 523.416 470.668 523.416 472.877V490.671V509.884C523.416 512.093 521.625 513.884 519.416 513.884H507.373C506.64 518.759 502.434 522.497 497.355 522.497C492.275 522.497 488.069 518.759 487.337 513.884H449.145C448.491 518.926 444.244 522.819 439.102 522.819C433.959 522.819 429.712 518.926 429.058 513.884H418.307C416.098 513.884 414.307 512.093 414.307 509.884V490.982C414.307 490.57 414.371 490.16 414.496 489.768L420.264 471.663ZM507.179 509.884C506.072 505.488 502.093 502.235 497.355 502.235C492.616 502.235 488.637 505.488 487.53 509.884H448.895C447.747 505.48 443.797 502.235 439.102 502.235C434.406 502.235 430.456 505.48 429.308 509.884H418.307V490.982L424.075 472.877L519.416 472.877V490.671V509.884H507.179Z"/>
</mask>
<path fill-rule="evenodd" clip-rule="evenodd" d="M420.264 471.663C420.793 470.004 422.334 468.877 424.075 468.877H519.416C521.625 468.877 523.416 470.668 523.416 472.877V490.671V509.884C523.416 512.093 521.625 513.884 519.416 513.884H507.373C506.64 518.759 502.434 522.497 497.355 522.497C492.275 522.497 488.069 518.759 487.337 513.884H449.145C448.491 518.926 444.244 522.819 439.102 522.819C433.959 522.819 429.712 518.926 429.058 513.884H418.307C416.098 513.884 414.307 512.093 414.307 509.884V490.982C414.307 490.57 414.371 490.16 414.496 489.768L420.264 471.663ZM507.179 509.884C506.072 505.488 502.093 502.235 497.355 502.235C492.616 502.235 488.637 505.488 487.53 509.884H448.895C447.747 505.48 443.797 502.235 439.102 502.235C434.406 502.235 430.456 505.48 429.308 509.884H418.307V490.982L424.075 472.877L519.416 472.877V490.671V509.884H507.179Z" fill="white"/>
<path d="M420.264 471.663L416.453 470.449L416.453 470.449L420.264 471.663ZM507.373 513.884V509.884H503.929L503.417 513.289L507.373 513.884ZM487.337 513.884L491.292 513.289L490.781 509.884H487.337V513.884ZM449.145 513.884V509.884H445.63L445.178 513.369L449.145 513.884ZM429.058 513.884L433.025 513.369L432.573 509.884H429.058V513.884ZM414.496 489.768L410.684 488.553L410.684 488.553L414.496 489.768ZM507.179 509.884L503.3 510.861L504.062 513.884H507.179V509.884ZM487.53 509.884V513.884H490.647L491.409 510.861L487.53 509.884ZM448.895 509.884L445.025 510.893L445.805 513.884H448.895V509.884ZM429.308 509.884V513.884H432.398L433.178 510.893L429.308 509.884ZM418.307 509.884H414.307V513.884H418.307V509.884ZM418.307 490.982L414.496 489.768L414.307 490.36V490.982H418.307ZM424.075 472.877V468.877L421.152 468.877L420.264 471.663L424.075 472.877ZM519.416 472.877H523.416V468.877L519.416 468.877V472.877ZM519.416 509.884V513.884H523.416V509.884H519.416ZM424.075 464.877C420.593 464.877 417.51 467.13 416.453 470.449L424.075 472.877L424.075 472.877V464.877ZM519.416 464.877H424.075V472.877H519.416V464.877ZM527.416 472.877C527.416 468.459 523.834 464.877 519.416 464.877V472.877H527.416ZM527.416 490.671V472.877H519.416V490.671H527.416ZM527.416 509.884V490.671H519.416V509.884H527.416ZM519.416 517.884C523.834 517.884 527.416 514.302 527.416 509.884H519.416V517.884ZM507.373 517.884H519.416V509.884H507.373V517.884ZM503.417 513.289C502.974 516.236 500.425 518.497 497.355 518.497V526.497C504.443 526.497 510.306 521.281 511.328 514.478L503.417 513.289ZM497.355 518.497C494.284 518.497 491.735 516.236 491.292 513.289L483.381 514.478C484.403 521.281 490.266 526.497 497.355 526.497V518.497ZM449.145 517.884H487.337V509.884H449.145V517.884ZM439.102 526.819C446.329 526.819 452.209 521.36 453.112 514.398L445.178 513.369C444.773 516.493 442.159 518.819 439.102 518.819V526.819ZM425.091 514.398C425.994 521.36 431.875 526.819 439.102 526.819V518.819C436.044 518.819 433.43 516.493 433.025 513.369L425.091 514.398ZM418.307 517.884H429.058V509.884H418.307V517.884ZM410.307 509.884C410.307 514.302 413.889 517.884 418.307 517.884V509.884H418.307H410.307ZM410.307 490.982V509.884H418.307V490.982H410.307ZM410.684 488.553C410.434 489.339 410.307 490.158 410.307 490.982H418.307V490.982L410.684 488.553ZM416.453 470.449L410.684 488.553L418.307 490.982L424.075 472.877L416.453 470.449ZM497.355 506.235C500.217 506.235 502.63 508.2 503.3 510.861L511.058 508.907C509.514 502.777 503.97 498.235 497.355 498.235V506.235ZM491.409 510.861C492.079 508.2 494.492 506.235 497.355 506.235V498.235C490.739 498.235 485.195 502.777 483.651 508.907L491.409 510.861ZM448.895 513.884H487.53V505.884H448.895V513.884ZM439.102 506.235C441.894 506.235 444.314 508.17 445.025 510.893L452.766 508.874C451.179 502.791 445.701 498.235 439.102 498.235V506.235ZM433.178 510.893C433.889 508.17 436.309 506.235 439.102 506.235V498.235C432.502 498.235 427.024 502.791 425.437 508.874L433.178 510.893ZM418.307 513.884H429.308V505.884H418.307V513.884ZM414.307 490.982V509.884H422.307V490.982H414.307ZM420.264 471.663L414.496 489.768L422.118 492.196L427.886 474.092L420.264 471.663ZM519.416 468.877L424.075 468.877V476.877L519.416 476.877V468.877ZM523.416 490.671V472.877H515.416V490.671H523.416ZM523.416 509.884V490.671H515.416V509.884H523.416ZM507.179 513.884H519.416V505.884H507.179V513.884Z" fill="#1B0066" mask="url(#path-20-inside-1)"/>
<path d="M428.95 479.65C429.164 478.749 429.969 478.114 430.895 478.114L442.519 478.114C443.624 478.114 444.519 479.009 444.519 480.114V488.174C444.519 489.279 443.624 490.174 442.519 490.174H428.973C427.68 490.174 426.727 488.967 427.027 487.71L428.95 479.65Z" stroke="#1B0066" stroke-width="4"/>
<path d="M459.752 480.114C459.752 479.009 460.648 478.114 461.752 478.114L472.955 478.114C474.06 478.114 474.955 479.009 474.955 480.114V488.174C474.955 489.279 474.06 490.174 472.955 490.174H461.752C460.648 490.174 459.752 489.279 459.752 488.174V480.114Z" stroke="#1B0066" stroke-width="4"/>
<path d="M488.485 480.114C488.485 479.009 489.38 478.114 490.485 478.114H501.688C502.793 478.114 503.688 479.009 503.688 480.114V488.174C503.688 489.279 502.793 490.174 501.688 490.174H490.485C489.38 490.174 488.485 489.279 488.485 488.174V480.114Z" stroke="#1B0066" stroke-width="4"/>
<path d="M378.319 154.487V148.601C378.319 147.788 378.886 147.129 379.586 147.129C380.285 147.129 380.852 147.788 380.852 148.601V154.487C380.852 155.3 380.285 155.959 379.586 155.959C378.886 155.959 378.319 155.3 378.319 154.487Z" fill="#1B0066"/>
<path d="M385.917 154.487V148.601C385.917 147.788 386.484 147.129 387.184 147.129C387.883 147.129 388.45 147.788 388.45 148.601V154.487C388.45 155.3 387.883 155.959 387.184 155.959C386.484 155.959 385.917 155.3 385.917 154.487Z" fill="#1B0066"/>
<path d="M394.782 154.487V148.601C394.782 147.788 395.349 147.129 396.048 147.129C396.748 147.129 397.315 147.788 397.315 148.601V154.487C397.315 155.3 396.748 155.959 396.048 155.959C395.349 155.959 394.782 155.3 394.782 154.487Z" fill="#1B0066"/>
<path d="M370.721 123.027C370.721 118.609 374.303 115.027 378.721 115.027H395.647C400.065 115.027 403.647 118.609 403.647 123.027V132.756H370.721V123.027Z" stroke="#1B0066" stroke-width="4"/>
<rect x="370.721" y="132.756" width="32.9256" height="43.0566" stroke="#1B0066" stroke-width="4"/>
<path d="M408.374 156.759L408.712 154.788L408.544 154.759H408.374V156.759ZM430.008 115.473C430.954 114.902 431.257 113.672 430.686 112.727C430.115 111.781 428.885 111.478 427.94 112.049L430.008 115.473ZM403.647 158.759H408.374V154.759H403.647V158.759ZM408.037 158.731C409.524 158.985 411.676 158.733 413.474 157.195C415.316 155.619 416.453 152.983 416.453 149.13H412.453C412.453 152.213 411.564 153.565 410.873 154.156C410.138 154.785 409.251 154.88 408.712 154.788L408.037 158.731ZM416.453 149.13C416.453 149.117 416.453 149.103 416.453 149.09C416.453 149.076 416.453 149.063 416.453 149.049C416.453 149.035 416.453 149.022 416.453 149.008C416.453 148.995 416.453 148.981 416.453 148.967C416.453 148.954 416.453 148.94 416.453 148.926C416.453 148.913 416.453 148.899 416.453 148.885C416.453 148.871 416.453 148.858 416.453 148.844C416.453 148.83 416.453 148.816 416.453 148.803C416.453 148.789 416.453 148.775 416.453 148.761C416.453 148.747 416.453 148.734 416.453 148.72C416.453 148.706 416.453 148.692 416.453 148.678C416.453 148.664 416.453 148.651 416.453 148.637C416.453 148.623 416.453 148.609 416.453 148.595C416.453 148.581 416.453 148.567 416.453 148.553C416.453 148.539 416.453 148.525 416.453 148.511C416.453 148.497 416.453 148.483 416.453 148.469C416.453 148.455 416.453 148.441 416.453 148.427C416.453 148.413 416.453 148.399 416.453 148.385C416.453 148.371 416.453 148.357 416.453 148.343C416.453 148.329 416.453 148.315 416.453 148.301C416.453 148.287 416.453 148.273 416.453 148.259C416.453 148.244 416.453 148.23 416.453 148.216C416.453 148.202 416.453 148.188 416.453 148.174C416.453 148.16 416.453 148.145 416.453 148.131C416.453 148.117 416.453 148.103 416.453 148.088C416.453 148.074 416.453 148.06 416.453 148.046C416.453 148.032 416.453 148.017 416.453 148.003C416.453 147.989 416.453 147.974 416.453 147.96C416.453 147.946 416.453 147.931 416.453 147.917C416.453 147.903 416.453 147.888 416.453 147.874C416.453 147.86 416.453 147.845 416.453 147.831C416.453 147.817 416.453 147.802 416.453 147.788C416.453 147.773 416.453 147.759 416.453 147.745C416.453 147.73 416.453 147.716 416.453 147.701C416.453 147.687 416.453 147.672 416.453 147.658C416.453 147.643 416.453 147.629 416.453 147.615C416.453 147.6 416.453 147.586 416.453 147.571C416.453 147.556 416.453 147.542 416.453 147.527C416.453 147.513 416.453 147.498 416.453 147.484C416.453 147.469 416.453 147.455 416.453 147.44C416.453 147.425 416.453 147.411 416.453 147.396C416.453 147.382 416.453 147.367 416.453 147.352C416.453 147.338 416.453 147.323 416.453 147.308C416.453 147.294 416.453 147.279 416.453 147.264C416.453 147.25 416.453 147.235 416.453 147.22C416.453 147.206 416.453 147.191 416.453 147.176C416.453 147.161 416.453 147.147 416.453 147.132C416.453 147.117 416.453 147.102 416.453 147.088C416.453 147.073 416.453 147.058 416.453 147.043C416.453 147.029 416.453 147.014 416.453 146.999C416.453 146.984 416.453 146.969 416.453 146.954C416.453 146.94 416.453 146.925 416.453 146.91C416.453 146.895 416.453 146.88 416.453 146.865C416.453 146.85 416.453 146.836 416.453 146.821C416.453 146.806 416.453 146.791 416.453 146.776C416.453 146.761 416.453 146.746 416.453 146.731C416.453 146.716 416.453 146.701 416.453 146.686C416.453 146.671 416.453 146.656 416.453 146.641C416.453 146.626 416.453 146.611 416.453 146.596C416.453 146.581 416.453 146.566 416.453 146.551C416.453 146.536 416.453 146.521 416.453 146.506C416.453 146.491 416.453 146.476 416.453 146.461C416.453 146.446 416.453 146.431 416.453 146.416C416.453 146.401 416.453 146.386 416.453 146.371C416.453 146.356 416.453 146.34 416.453 146.325C416.453 146.31 416.453 146.295 416.453 146.28C416.453 146.265 416.453 146.25 416.453 146.234C416.453 146.219 416.453 146.204 416.453 146.189C416.453 146.174 416.453 146.159 416.453 146.143C416.453 146.128 416.453 146.113 416.453 146.098C416.453 146.083 416.453 146.067 416.453 146.052C416.453 146.037 416.453 146.022 416.453 146.006C416.453 145.991 416.453 145.976 416.453 145.961C416.453 145.945 416.453 145.93 416.453 145.915C416.453 145.899 416.453 145.884 416.453 145.869C416.453 145.854 416.453 145.838 416.453 145.823C416.453 145.808 416.453 145.792 416.453 145.777C416.453 145.762 416.453 145.746 416.453 145.731C416.453 145.715 416.453 145.7 416.453 145.685C416.453 145.669 416.453 145.654 416.453 145.639C416.453 145.623 416.453 145.608 416.453 145.592C416.453 145.577 416.453 145.562 416.453 145.546C416.453 145.531 416.453 145.515 416.453 145.5C416.453 145.484 416.453 145.469 416.453 145.453C416.453 145.438 416.453 145.423 416.453 145.407C416.453 145.392 416.453 145.376 416.453 145.361C416.453 145.345 416.453 145.33 416.453 145.314C416.453 145.299 416.453 145.283 416.453 145.268C416.453 145.252 416.453 145.236 416.453 145.221C416.453 145.205 416.453 145.19 416.453 145.174C416.453 145.159 416.453 145.143 416.453 145.128C416.453 145.112 416.453 145.096 416.453 145.081C416.453 145.065 416.453 145.05 416.453 145.034C416.453 145.018 416.453 145.003 416.453 144.987C416.453 144.972 416.453 144.956 416.453 144.94C416.453 144.925 416.453 144.909 416.453 144.893C416.453 144.878 416.453 144.862 416.453 144.846C416.453 144.831 416.453 144.815 416.453 144.799C416.453 144.784 416.453 144.768 416.453 144.752C416.453 144.737 416.453 144.721 416.453 144.705C416.453 144.69 416.453 144.674 416.453 144.658C416.453 144.642 416.453 144.627 416.453 144.611C416.453 144.595 416.453 144.579 416.453 144.564C416.453 144.548 416.453 144.532 416.453 144.516C416.453 144.501 416.453 144.485 416.453 144.469C416.453 144.453 416.453 144.438 416.453 144.422C416.453 144.406 416.453 144.39 416.453 144.374C416.453 144.359 416.453 144.343 416.453 144.327C416.453 144.311 416.453 144.295 416.453 144.28C416.453 144.264 416.453 144.248 416.453 144.232C416.453 144.216 416.453 144.2 416.453 144.185C416.453 144.169 416.453 144.153 416.453 144.137C416.453 144.121 416.453 144.105 416.453 144.089C416.453 144.073 416.453 144.058 416.453 144.042C416.453 144.026 416.453 144.01 416.453 143.994C416.453 143.978 416.453 143.962 416.453 143.946C416.453 143.93 416.453 143.914 416.453 143.899C416.453 143.883 416.453 143.867 416.453 143.851C416.453 143.835 416.453 143.819 416.453 143.803C416.453 143.787 416.453 143.771 416.453 143.755C416.453 143.739 416.453 143.723 416.453 143.707C416.453 143.691 416.453 143.675 416.453 143.659C416.453 143.643 416.453 143.627 416.453 143.611C416.453 143.595 416.453 143.579 416.453 143.563C416.453 143.547 416.453 143.531 416.453 143.515C416.453 143.499 416.453 143.483 416.453 143.467C416.453 143.451 416.453 143.435 416.453 143.419C416.453 143.403 416.453 143.387 416.453 143.371C416.453 143.355 416.453 143.339 416.453 143.323C416.453 143.307 416.453 143.291 416.453 143.275C416.453 143.259 416.453 143.243 416.453 143.226C416.453 143.21 416.453 143.194 416.453 143.178C416.453 143.162 416.453 143.146 416.453 143.13C416.453 143.114 416.453 143.098 416.453 143.082C416.453 143.066 416.453 143.049 416.453 143.033C416.453 143.017 416.453 143.001 416.453 142.985C416.453 142.969 416.453 142.953 416.453 142.937C416.453 142.921 416.453 142.904 416.453 142.888C416.453 142.872 416.453 142.856 416.453 142.84C416.453 142.824 416.453 142.808 416.453 142.791C416.453 142.775 416.453 142.759 416.453 142.743C416.453 142.727 416.453 142.711 416.453 142.694C416.453 142.678 416.453 142.662 416.453 142.646C416.453 142.63 416.453 142.614 416.453 142.597C416.453 142.581 416.453 142.565 416.453 142.549C416.453 142.533 416.453 142.516 416.453 142.5C416.453 142.484 416.453 142.468 416.453 142.452C416.453 142.435 416.453 142.419 416.453 142.403C416.453 142.387 416.453 142.371 416.453 142.354C416.453 142.338 416.453 142.322 416.453 142.306C416.453 142.29 416.453 142.273 416.453 142.257C416.453 142.241 416.453 142.225 416.453 142.208C416.453 142.192 416.453 142.176 416.453 142.16C416.453 142.143 416.453 142.127 416.453 142.111C416.453 142.095 416.453 142.078 416.453 142.062C416.453 142.046 416.453 142.03 416.453 142.013C416.453 141.997 416.453 141.981 416.453 141.965C416.453 141.948 416.453 141.932 416.453 141.916C416.453 141.899 416.453 141.883 416.453 141.867C416.453 141.851 416.453 141.834 416.453 141.818C416.453 141.802 416.453 141.786 416.453 141.769C416.453 141.753 416.453 141.737 416.453 141.72C416.453 141.704 416.453 141.688 416.453 141.671C416.453 141.655 416.453 141.639 416.453 141.623C416.453 141.606 416.453 141.59 416.453 141.574C416.453 141.557 416.453 141.541 416.453 141.525C416.453 141.508 416.453 141.492 416.453 141.476C416.453 141.459 416.453 141.443 416.453 141.427C416.453 141.411 416.453 141.394 416.453 141.378C416.453 141.362 416.453 141.345 416.453 141.329C416.453 141.313 416.453 141.296 416.453 141.28C416.453 141.264 416.453 141.247 416.453 141.231C416.453 141.215 416.453 141.198 416.453 141.182C416.453 141.166 416.453 141.149 416.453 141.133C416.453 141.117 416.453 141.1 416.453 141.084C416.453 141.068 416.453 141.051 416.453 141.035C416.453 141.018 416.453 141.002 416.453 140.986C416.453 140.969 416.453 140.953 416.453 140.937C416.453 140.92 416.453 140.904 416.453 140.888C416.453 140.871 416.453 140.855 416.453 140.839C416.453 140.822 416.453 140.806 416.453 140.79C416.453 140.773 416.453 140.757 416.453 140.74C416.453 140.724 416.453 140.708 416.453 140.691C416.453 140.675 416.453 140.659 416.453 140.642C416.453 140.626 416.453 140.61 416.453 140.593C416.453 140.577 416.453 140.56 416.453 140.544C416.453 140.528 416.453 140.511 416.453 140.495C416.453 140.479 416.453 140.462 416.453 140.446C416.453 140.43 416.453 140.413 416.453 140.397C416.453 140.38 416.453 140.364 416.453 140.348C416.453 140.331 416.453 140.315 416.453 140.299C416.453 140.282 416.453 140.266 416.453 140.249C416.453 140.233 416.453 140.217 416.453 140.2C416.453 140.184 416.453 140.168 416.453 140.151C416.453 140.135 416.453 140.118 416.453 140.102C416.453 140.086 416.453 140.069 416.453 140.053C416.453 140.037 416.453 140.02 416.453 140.004C416.453 139.988 416.453 139.971 416.453 139.955C416.453 139.938 416.453 139.922 416.453 139.906C416.453 139.889 416.453 139.873 416.453 139.857C416.453 139.84 416.453 139.824 416.453 139.807C416.453 139.791 416.453 139.775 416.453 139.758C416.453 139.742 416.453 139.726 416.453 139.709C416.453 139.693 416.453 139.677 416.453 139.66C416.453 139.644 416.453 139.627 416.453 139.611C416.453 139.595 416.453 139.578 416.453 139.562C416.453 139.546 416.453 139.529 416.453 139.513C416.453 139.497 416.453 139.48 416.453 139.464C416.453 139.447 416.453 139.431 416.453 139.415C416.453 139.398 416.453 139.382 416.453 139.366C416.453 139.349 416.453 139.333 416.453 139.317C416.453 139.3 416.453 139.284 416.453 139.268C416.453 139.251 416.453 139.235 416.453 139.219C416.453 139.202 416.453 139.186 416.453 139.17C416.453 139.153 416.453 139.137 416.453 139.121C416.453 139.104 416.453 139.088 416.453 139.072C416.453 139.055 416.453 139.039 416.453 139.023C416.453 139.006 416.453 138.99 416.453 138.974C416.453 138.957 416.453 138.941 416.453 138.925C416.453 138.908 416.453 138.892 416.453 138.876C416.453 138.859 416.453 138.843 416.453 138.827C416.453 138.81 416.453 138.794 416.453 138.778C416.453 138.761 416.453 138.745 416.453 138.729C416.453 138.712 416.453 138.696 416.453 138.68C416.453 138.663 416.453 138.647 416.453 138.631C416.453 138.615 416.453 138.598 416.453 138.582C416.453 138.566 416.453 138.549 416.453 138.533C416.453 138.517 416.453 138.501 416.453 138.484C416.453 138.468 416.453 138.452 416.453 138.435C416.453 138.419 416.453 138.403 416.453 138.387C416.453 138.37 416.453 138.354 416.453 138.338C416.453 138.321 416.453 138.305 416.453 138.289C416.453 138.273 416.453 138.256 416.453 138.24C416.453 138.224 416.453 138.208 416.453 138.191C416.453 138.175 416.453 138.159 416.453 138.143C416.453 138.126 416.453 138.11 416.453 138.094C416.453 138.078 416.453 138.061 416.453 138.045C416.453 138.029 416.453 138.013 416.453 137.997C416.453 137.98 416.453 137.964 416.453 137.948C416.453 137.932 416.453 137.915 416.453 137.899C416.453 137.883 416.453 137.867 416.453 137.851C416.453 137.834 416.453 137.818 416.453 137.802C416.453 137.786 416.453 137.77 416.453 137.753C416.453 137.737 416.453 137.721 416.453 137.705C416.453 137.689 416.453 137.672 416.453 137.656C416.453 137.64 416.453 137.624 416.453 137.608C416.453 137.592 416.453 137.575 416.453 137.559C416.453 137.543 416.453 137.527 416.453 137.511C416.453 137.495 416.453 137.478 416.453 137.462C416.453 137.446 416.453 137.43 416.453 137.414C416.453 137.398 416.453 137.382 416.453 137.365C416.453 137.349 416.453 137.333 416.453 137.317C416.453 137.301 416.453 137.285 416.453 137.269C416.453 137.253 416.453 137.237 416.453 137.22C416.453 137.204 416.453 137.188 416.453 137.172C416.453 137.156 416.453 137.14 416.453 137.124C416.453 137.108 416.453 137.092 416.453 137.076C416.453 137.06 416.453 137.043 416.453 137.027C416.453 137.011 416.453 136.995 416.453 136.979C416.453 136.963 416.453 136.947 416.453 136.931C416.453 136.915 416.453 136.899 416.453 136.883C416.453 136.867 416.453 136.851 416.453 136.835C416.453 136.819 416.453 136.803 416.453 136.787C416.453 136.771 416.453 136.755 416.453 136.739C416.453 136.723 416.453 136.707 416.453 136.691C416.453 136.675 416.453 136.659 416.453 136.643C416.453 136.627 416.453 136.611 416.453 136.595C416.453 136.579 416.453 136.563 416.453 136.547C416.453 136.531 416.453 136.515 416.453 136.499C416.453 136.483 416.453 136.467 416.453 136.451C416.453 136.435 416.453 136.419 416.453 136.403C416.453 136.387 416.453 136.372 416.453 136.356C416.453 136.34 416.453 136.324 416.453 136.308C416.453 136.292 416.453 136.276 416.453 136.26C416.453 136.244 416.453 136.228 416.453 136.213C416.453 136.197 416.453 136.181 416.453 136.165C416.453 136.149 416.453 136.133 416.453 136.117C416.453 136.101 416.453 136.086 416.453 136.07C416.453 136.054 416.453 136.038 416.453 136.022C416.453 136.006 416.453 135.991 416.453 135.975C416.453 135.959 416.453 135.943 416.453 135.927C416.453 135.912 416.453 135.896 416.453 135.88C416.453 135.864 416.453 135.848 416.453 135.833C416.453 135.817 416.453 135.801 416.453 135.785C416.453 135.769 416.453 135.754 416.453 135.738C416.453 135.722 416.453 135.706 416.453 135.691C416.453 135.675 416.453 135.659 416.453 135.644C416.453 135.628 416.453 135.612 416.453 135.596C416.453 135.581 416.453 135.565 416.453 135.549C416.453 135.534 416.453 135.518 416.453 135.502C416.453 135.486 416.453 135.471 416.453 135.455C416.453 135.439 416.453 135.424 416.453 135.408C416.453 135.393 416.453 135.377 416.453 135.361C416.453 135.346 416.453 135.33 416.453 135.314C416.453 135.299 416.453 135.283 416.453 135.267C416.453 135.252 416.453 135.236 416.453 135.221C416.453 135.205 416.453 135.189 416.453 135.174C416.453 135.158 416.453 135.143 416.453 135.127C416.453 135.112 416.453 135.096 416.453 135.081C416.453 135.065 416.453 135.049 416.453 135.034C416.453 135.018 416.453 135.003 416.453 134.987C416.453 134.972 416.453 134.956 416.453 134.941C416.453 134.925 416.453 134.91 416.453 134.894C416.453 134.879 416.453 134.863 416.453 134.848C416.453 134.832 416.453 134.817 416.453 134.802C416.453 134.786 416.453 134.771 416.453 134.755C416.453 134.74 416.453 134.724 416.453 134.709C416.453 134.693 416.453 134.678 416.453 134.663C416.453 134.647 416.453 134.632 416.453 134.616C416.453 134.601 416.453 134.586 416.453 134.57C416.453 134.555 416.453 134.54 416.453 134.524C416.453 134.509 416.453 134.494 416.453 134.478C416.453 134.463 416.453 134.448 416.453 134.432C416.453 134.417 416.453 134.402 416.453 134.386C416.453 134.371 416.453 134.356 416.453 134.341C416.453 134.325 416.453 134.31 416.453 134.295C416.453 134.279 416.453 134.264 416.453 134.249C416.453 134.234 416.453 134.219 416.453 134.203C416.453 134.188 416.453 134.173 416.453 134.158C416.453 134.142 416.453 134.127 416.453 134.112C416.453 134.097 416.453 134.082 416.453 134.067C416.453 134.051 416.453 134.036 416.453 134.021C416.453 134.006 416.453 133.991 416.453 133.976C416.453 133.961 416.453 133.945 416.453 133.93C416.453 133.915 416.453 133.9 416.453 133.885C416.453 133.87 416.453 133.855 416.453 133.84C416.453 133.825 416.453 133.81 416.453 133.795C416.453 133.78 416.453 133.764 416.453 133.749C416.453 133.734 416.453 133.719 416.453 133.704C416.453 133.689 416.453 133.674 416.453 133.659C416.453 133.644 416.453 133.629 416.453 133.614C416.453 133.599 416.453 133.585 416.453 133.57C416.453 133.555 416.453 133.54 416.453 133.525C416.453 133.51 416.453 133.495 416.453 133.48C416.453 133.465 416.453 133.45 416.453 133.435C416.453 133.42 416.453 133.406 416.453 133.391C416.453 133.376 416.453 133.361 416.453 133.346C416.453 133.331 416.453 133.316 416.453 133.302C416.453 133.287 416.453 133.272 416.453 133.257C416.453 133.242 416.453 133.228 416.453 133.213C416.453 133.198 416.453 133.183 416.453 133.169C416.453 133.154 416.453 133.139 416.453 133.124C416.453 133.11 416.453 133.095 416.453 133.08C416.453 133.065 416.453 133.051 416.453 133.036C416.453 133.021 416.453 133.007 416.453 132.992C416.453 132.977 416.453 132.963 416.453 132.948C416.453 132.933 416.453 132.919 416.453 132.904C416.453 132.889 416.453 132.875 416.453 132.86C416.453 132.846 416.453 132.831 416.453 132.817C416.453 132.802 416.453 132.787 416.453 132.773C416.453 132.758 416.453 132.744 416.453 132.729C416.453 132.715 416.453 132.7 416.453 132.686C416.453 132.671 416.453 132.657 416.453 132.642C416.453 132.628 416.453 132.613 416.453 132.599C416.453 132.584 416.453 132.57 416.453 132.555C416.453 132.541 416.453 132.527 416.453 132.512C416.453 132.498 416.453 132.483 416.453 132.469C416.453 132.455 416.453 132.44 416.453 132.426C416.453 132.411 416.453 132.397 416.453 132.383C416.453 132.368 416.453 132.354 416.453 132.34C416.453 132.325 416.453 132.311 416.453 132.297C416.453 132.283 416.453 132.268 416.453 132.254C416.453 132.24 416.453 132.226 416.453 132.211C416.453 132.197 416.453 132.183 416.453 132.169C416.453 132.154 416.453 132.14 416.453 132.126C416.453 132.112 416.453 132.098 416.453 132.084C416.453 132.069 416.453 132.055 416.453 132.041C416.453 132.027 416.453 132.013 416.453 131.999C416.453 131.985 416.453 131.971 416.453 131.956C416.453 131.942 416.453 131.928 416.453 131.914C416.453 131.9 416.453 131.886 416.453 131.872C416.453 131.858 416.453 131.844 416.453 131.83C416.453 131.816 416.453 131.802 416.453 131.788C416.453 131.774 416.453 131.76 416.453 131.746C416.453 131.732 416.453 131.718 416.453 131.704C416.453 131.69 416.453 131.677 416.453 131.663C416.453 131.649 416.453 131.635 416.453 131.621C416.453 131.607 416.453 131.593 416.453 131.579C416.453 131.566 416.453 131.552 416.453 131.538C416.453 131.524 416.453 131.51 416.453 131.497C416.453 131.483 416.453 131.469 416.453 131.455C416.453 131.442 416.453 131.428 416.453 131.414C416.453 131.4 416.453 131.387 416.453 131.373C416.453 131.359 416.453 131.346 416.453 131.332C416.453 131.318 416.453 131.305 416.453 131.291C416.453 131.277 416.453 131.264 416.453 131.25C416.453 131.236 416.453 131.223 416.453 131.209C416.453 131.196 416.453 131.182 416.453 131.168C416.453 131.155 416.453 131.141 416.453 131.128C416.453 131.114 416.453 131.101 416.453 131.087C416.453 131.074 416.453 131.06 416.453 131.047C416.453 131.033 416.453 131.02 416.453 131.006C416.453 130.993 416.453 130.98 416.453 130.966C416.453 130.953 416.453 130.939 416.453 130.926C416.453 130.913 416.453 130.899 416.453 130.886C416.453 130.873 416.453 130.859 416.453 130.846C416.453 130.833 416.453 130.819 416.453 130.806C416.453 130.793 416.453 130.779 416.453 130.766C416.453 130.753 416.453 130.74 416.453 130.726C416.453 130.713 416.453 130.7 416.453 130.687C416.453 130.674 416.453 130.66 416.453 130.647C416.453 130.634 416.453 130.621 416.453 130.608C416.453 130.595 416.453 130.582 416.453 130.568C416.453 130.555 416.453 130.542 416.453 130.529C416.453 130.516 416.453 130.503 416.453 130.49C416.453 130.477 416.453 130.464 416.453 130.451C416.453 130.438 416.453 130.425 416.453 130.412C416.453 130.399 416.453 130.386 416.453 130.373C416.453 130.36 416.453 130.347 416.453 130.334C416.453 130.321 416.453 130.308 416.453 130.296C416.453 130.283 416.453 130.27 416.453 130.257C416.453 130.244 416.453 130.231 416.453 130.218C416.453 130.206 416.453 130.193 416.453 130.18C416.453 130.167 416.453 130.155 416.453 130.142C416.453 130.129 416.453 130.116 416.453 130.104C416.453 130.091 416.453 130.078 416.453 130.065C416.453 130.053 416.453 130.04 416.453 130.027C416.453 130.015 416.453 130.002 416.453 129.99C416.453 129.977 416.453 129.964 416.453 129.952C416.453 129.939 416.453 129.927 416.453 129.914C416.453 129.901 416.453 129.889 416.453 129.876C416.453 129.864 416.453 129.851 416.453 129.839C416.453 129.826 416.453 129.814 416.453 129.802C416.453 129.789 416.453 129.777 416.453 129.764C416.453 129.752 416.453 129.739 416.453 129.727C416.453 129.715 416.453 129.702 416.453 129.69C416.453 129.678 416.453 129.665 416.453 129.653C416.453 129.641 416.453 129.628 416.453 129.616C416.453 129.604 416.453 129.592 416.453 129.579C416.453 129.567 416.453 129.555 416.453 129.543C416.453 129.53 416.453 129.518 416.453 129.506C416.453 129.494 416.453 129.482 416.453 129.47C416.453 129.457 416.453 129.445 416.453 129.433C416.453 129.421 416.453 129.409 416.453 129.397C416.453 129.385 416.453 129.373 416.453 129.361C416.453 129.349 416.453 129.337 416.453 129.325C416.453 129.313 416.453 129.301 416.453 129.289C416.453 129.277 416.453 129.265 416.453 129.253C416.453 129.241 416.453 129.229 416.453 129.217C416.453 129.206 416.453 129.194 416.453 129.182C416.453 129.17 416.453 129.158 416.453 129.146C416.453 129.135 416.453 129.123 416.453 129.111C416.453 129.099 416.453 129.087 416.453 129.076C416.453 129.064 416.453 129.052 416.453 129.041C416.453 129.029 416.453 129.017 416.453 129.006C416.453 128.994 416.453 128.982 416.453 128.971C416.453 128.959 416.453 128.947 416.453 128.936C416.453 128.924 416.453 128.913 416.453 128.901C416.453 128.89 416.453 128.878 416.453 128.867C416.453 128.855 416.453 128.844 416.453 128.832C416.453 128.821 416.453 128.809 416.453 128.798C416.453 128.786 416.453 128.775 416.453 128.764C416.453 128.752 416.453 128.741 416.453 128.729C416.453 128.718 416.453 128.707 416.453 128.695C416.453 128.684 416.453 128.673 416.453 128.662C416.453 128.65 416.453 128.639 416.453 128.628C416.453 128.617 416.453 128.605 416.453 128.594C416.453 128.583 416.453 128.572 416.453 128.561C416.453 128.549 416.453 128.538 416.453 128.527C416.453 128.516 416.453 128.505 416.453 128.494C416.453 128.483 416.453 128.472 416.453 128.461C416.453 128.45 416.453 128.439 416.453 128.428C416.453 128.417 416.453 128.406 416.453 128.395C416.453 128.384 416.453 128.373 416.453 128.362C416.453 128.351 416.453 128.34 416.453 128.329C416.453 128.318 416.453 128.307 416.453 128.297C416.453 128.286 416.453 128.275 416.453 128.264C416.453 128.253 416.453 128.243 416.453 128.232C416.453 128.221 416.453 128.21 416.453 128.2C416.453 128.189 416.453 128.178 416.453 128.168C416.453 128.157 416.453 128.146 416.453 128.136C416.453 128.125 416.453 128.114 416.453 128.104C416.453 128.093 416.453 128.083 416.453 128.072C416.453 128.062 416.453 128.051 416.453 128.04C416.453 128.03 416.453 128.019 416.453 128.009C416.453 127.999 416.453 127.988 416.453 127.978C416.453 127.967 416.453 127.957 416.453 127.947C416.453 127.936 416.453 127.926 416.453 127.915C416.453 127.905 416.453 127.895 416.453 127.884C416.453 127.874 416.453 127.864 416.453 127.854C416.453 127.843 416.453 127.833 416.453 127.823C416.453 127.813 416.453 127.803 416.453 127.792C416.453 127.782 416.453 127.772 416.453 127.762C416.453 127.752 416.453 127.742 416.453 127.732C416.453 127.722 416.453 127.712 416.453 127.702C416.453 127.691 416.453 127.681 416.453 127.671C416.453 127.661 416.453 127.652 416.453 127.642C416.453 127.632 416.453 127.622 416.453 127.612C416.453 127.602 416.453 127.592 416.453 127.582C416.453 127.572 416.453 127.562 416.453 127.553C416.453 127.543 416.453 127.533 416.453 127.523C416.453 127.513 416.453 127.504 416.453 127.494C416.453 127.484 416.453 127.475 416.453 127.465C416.453 127.455 416.453 127.446 416.453 127.436C416.453 127.426 416.453 127.417 416.453 127.407C416.453 127.397 416.453 127.388 416.453 127.378C416.453 127.369 416.453 127.359 416.453 127.35C416.453 127.34 416.453 127.331 416.453 127.321C416.453 127.312 416.453 127.302 416.453 127.293C416.453 127.284 416.453 127.274 416.453 127.265C416.453 127.255 416.453 127.246 416.453 127.237C416.453 127.228 416.453 127.218 416.453 127.209C416.453 127.2 416.453 127.19 416.453 127.181C416.453 127.172 416.453 127.163 416.453 127.154C416.453 127.144 416.453 127.135 416.453 127.126C416.453 127.117 416.453 127.108 416.453 127.099C416.453 127.09 416.453 127.081 416.453 127.072C416.453 127.063 416.453 127.054 416.453 127.045C416.453 127.036 416.453 127.027 416.453 127.018C416.453 127.009 416.453 127 416.453 126.991C416.453 126.982 416.453 126.973 416.453 126.964C416.453 126.955 416.453 126.947 416.453 126.938H412.453C412.453 126.947 412.453 126.955 412.453 126.964C412.453 126.973 412.453 126.982 412.453 126.991C412.453 127 412.453 127.009 412.453 127.018C412.453 127.027 412.453 127.036 412.453 127.045C412.453 127.054 412.453 127.063 412.453 127.072C412.453 127.081 412.453 127.09 412.453 127.099C412.453 127.108 412.453 127.117 412.453 127.126C412.453 127.135 412.453 127.144 412.453 127.154C412.453 127.163 412.453 127.172 412.453 127.181C412.453 127.19 412.453 127.2 412.453 127.209C412.453 127.218 412.453 127.228 412.453 127.237C412.453 127.246 412.453 127.255 412.453 127.265C412.453 127.274 412.453 127.284 412.453 127.293C412.453 127.302 412.453 127.312 412.453 127.321C412.453 127.331 412.453 127.34 412.453 127.35C412.453 127.359 412.453 127.369 412.453 127.378C412.453 127.388 412.453 127.397 412.453 127.407C412.453 127.417 412.453 127.426 412.453 127.436C412.453 127.446 412.453 127.455 412.453 127.465C412.453 127.475 412.453 127.484 412.453 127.494C412.453 127.504 412.453 127.513 412.453 127.523C412.453 127.533 412.453 127.543 412.453 127.553C412.453 127.562 412.453 127.572 412.453 127.582C412.453 127.592 412.453 127.602 412.453 127.612C412.453 127.622 412.453 127.632 412.453 127.642C412.453 127.652 412.453 127.661 412.453 127.671C412.453 127.681 412.453 127.691 412.453 127.702C412.453 127.712 412.453 127.722 412.453 127.732C412.453 127.742 412.453 127.752 412.453 127.762C412.453 127.772 412.453 127.782 412.453 127.792C412.453 127.803 412.453 127.813 412.453 127.823C412.453 127.833 412.453 127.843 412.453 127.854C412.453 127.864 412.453 127.874 412.453 127.884C412.453 127.895 412.453 127.905 412.453 127.915C412.453 127.926 412.453 127.936 412.453 127.947C412.453 127.957 412.453 127.967 412.453 127.978C412.453 127.988 412.453 127.999 412.453 128.009C412.453 128.019 412.453 128.03 412.453 128.04C412.453 128.051 412.453 128.062 412.453 128.072C412.453 128.083 412.453 128.093 412.453 128.104C412.453 128.114 412.453 128.125 412.453 128.136C412.453 128.146 412.453 128.157 412.453 128.168C412.453 128.178 412.453 128.189 412.453 128.2C412.453 128.21 412.453 128.221 412.453 128.232C412.453 128.243 412.453 128.253 412.453 128.264C412.453 128.275 412.453 128.286 412.453 128.297C412.453 128.307 412.453 128.318 412.453 128.329C412.453 128.34 412.453 128.351 412.453 128.362C412.453 128.373 412.453 128.384 412.453 128.395C412.453 128.406 412.453 128.417 412.453 128.428C412.453 128.439 412.453 128.45 412.453 128.461C412.453 128.472 412.453 128.483 412.453 128.494C412.453 128.505 412.453 128.516 412.453 128.527C412.453 128.538 412.453 128.549 412.453 128.561C412.453 128.572 412.453 128.583 412.453 128.594C412.453 128.605 412.453 128.617 412.453 128.628C412.453 128.639 412.453 128.65 412.453 128.662C412.453 128.673 412.453 128.684 412.453 128.695C412.453 128.707 412.453 128.718 412.453 128.729C412.453 128.741 412.453 128.752 412.453 128.764C412.453 128.775 412.453 128.786 412.453 128.798C412.453 128.809 412.453 128.821 412.453 128.832C412.453 128.844 412.453 128.855 412.453 128.867C412.453 128.878 412.453 128.89 412.453 128.901C412.453 128.913 412.453 128.924 412.453 128.936C412.453 128.947 412.453 128.959 412.453 128.971C412.453 128.982 412.453 128.994 412.453 129.006C412.453 129.017 412.453 129.029 412.453 129.041C412.453 129.052 412.453 129.064 412.453 129.076C412.453 129.087 412.453 129.099 412.453 129.111C412.453 129.123 412.453 129.135 412.453 129.146C412.453 129.158 412.453 129.17 412.453 129.182C412.453 129.194 412.453 129.206 412.453 129.217C412.453 129.229 412.453 129.241 412.453 129.253C412.453 129.265 412.453 129.277 412.453 129.289C412.453 129.301 412.453 129.313 412.453 129.325C412.453 129.337 412.453 129.349 412.453 129.361C412.453 129.373 412.453 129.385 412.453 129.397C412.453 129.409 412.453 129.421 412.453 129.433C412.453 129.445 412.453 129.457 412.453 129.47C412.453 129.482 412.453 129.494 412.453 129.506C412.453 129.518 412.453 129.53 412.453 129.543C412.453 129.555 412.453 129.567 412.453 129.579C412.453 129.592 412.453 129.604 412.453 129.616C412.453 129.628 412.453 129.641 412.453 129.653C412.453 129.665 412.453 129.678 412.453 129.69C412.453 129.702 412.453 129.715 412.453 129.727C412.453 129.739 412.453 129.752 412.453 129.764C412.453 129.777 412.453 129.789 412.453 129.802C412.453 129.814 412.453 129.826 412.453 129.839C412.453 129.851 412.453 129.864 412.453 129.876C412.453 129.889 412.453 129.901 412.453 129.914C412.453 129.927 412.453 129.939 412.453 129.952C412.453 129.964 412.453 129.977 412.453 129.99C412.453 130.002 412.453 130.015 412.453 130.027C412.453 130.04 412.453 130.053 412.453 130.065C412.453 130.078 412.453 130.091 412.453 130.104C412.453 130.116 412.453 130.129 412.453 130.142C412.453 130.155 412.453 130.167 412.453 130.18C412.453 130.193 412.453 130.206 412.453 130.218C412.453 130.231 412.453 130.244 412.453 130.257C412.453 130.27 412.453 130.283 412.453 130.296C412.453 130.308 412.453 130.321 412.453 130.334C412.453 130.347 412.453 130.36 412.453 130.373C412.453 130.386 412.453 130.399 412.453 130.412C412.453 130.425 412.453 130.438 412.453 130.451C412.453 130.464 412.453 130.477 412.453 130.49C412.453 130.503 412.453 130.516 412.453 130.529C412.453 130.542 412.453 130.555 412.453 130.568C412.453 130.582 412.453 130.595 412.453 130.608C412.453 130.621 412.453 130.634 412.453 130.647C412.453 130.66 412.453 130.674 412.453 130.687C412.453 130.7 412.453 130.713 412.453 130.726C412.453 130.74 412.453 130.753 412.453 130.766C412.453 130.779 412.453 130.793 412.453 130.806C412.453 130.819 412.453 130.833 412.453 130.846C412.453 130.859 412.453 130.873 412.453 130.886C412.453 130.899 412.453 130.913 412.453 130.926C412.453 130.939 412.453 130.953 412.453 130.966C412.453 130.98 412.453 130.993 412.453 131.006C412.453 131.02 412.453 131.033 412.453 131.047C412.453 131.06 412.453 131.074 412.453 131.087C412.453 131.101 412.453 131.114 412.453 131.128C412.453 131.141 412.453 131.155 412.453 131.168C412.453 131.182 412.453 131.196 412.453 131.209C412.453 131.223 412.453 131.236 412.453 131.25C412.453 131.264 412.453 131.277 412.453 131.291C412.453 131.305 412.453 131.318 412.453 131.332C412.453 131.346 412.453 131.359 412.453 131.373C412.453 131.387 412.453 131.4 412.453 131.414C412.453 131.428 412.453 131.442 412.453 131.455C412.453 131.469 412.453 131.483 412.453 131.497C412.453 131.51 412.453 131.524 412.453 131.538C412.453 131.552 412.453 131.566 412.453 131.579C412.453 131.593 412.453 131.607 412.453 131.621C412.453 131.635 412.453 131.649 412.453 131.663C412.453 131.677 412.453 131.69 412.453 131.704C412.453 131.718 412.453 131.732 412.453 131.746C412.453 131.76 412.453 131.774 412.453 131.788C412.453 131.802 412.453 131.816 412.453 131.83C412.453 131.844 412.453 131.858 412.453 131.872C412.453 131.886 412.453 131.9 412.453 131.914C412.453 131.928 412.453 131.942 412.453 131.956C412.453 131.971 412.453 131.985 412.453 131.999C412.453 132.013 412.453 132.027 412.453 132.041C412.453 132.055 412.453 132.069 412.453 132.084C412.453 132.098 412.453 132.112 412.453 132.126C412.453 132.14 412.453 132.154 412.453 132.169C412.453 132.183 412.453 132.197 412.453 132.211C412.453 132.226 412.453 132.24 412.453 132.254C412.453 132.268 412.453 132.283 412.453 132.297C412.453 132.311 412.453 132.325 412.453 132.34C412.453 132.354 412.453 132.368 412.453 132.383C412.453 132.397 412.453 132.411 412.453 132.426C412.453 132.44 412.453 132.455 412.453 132.469C412.453 132.483 412.453 132.498 412.453 132.512C412.453 132.527 412.453 132.541 412.453 132.555C412.453 132.57 412.453 132.584 412.453 132.599C412.453 132.613 412.453 132.628 412.453 132.642C412.453 132.657 412.453 132.671 412.453 132.686C412.453 132.7 412.453 132.715 412.453 132.729C412.453 132.744 412.453 132.758 412.453 132.773C412.453 132.787 412.453 132.802 412.453 132.817C412.453 132.831 412.453 132.846 412.453 132.86C412.453 132.875 412.453 132.889 412.453 132.904C412.453 132.919 412.453 132.933 412.453 132.948C412.453 132.963 412.453 132.977 412.453 132.992C412.453 133.007 412.453 133.021 412.453 133.036C412.453 133.051 412.453 133.065 412.453 133.08C412.453 133.095 412.453 133.11 412.453 133.124C412.453 133.139 412.453 133.154 412.453 133.169C412.453 133.183 412.453 133.198 412.453 133.213C412.453 133.228 412.453 133.242 412.453 133.257C412.453 133.272 412.453 133.287 412.453 133.302C412.453 133.316 412.453 133.331 412.453 133.346C412.453 133.361 412.453 133.376 412.453 133.391C412.453 133.406 412.453 133.42 412.453 133.435C412.453 133.45 412.453 133.465 412.453 133.48C412.453 133.495 412.453 133.51 412.453 133.525C412.453 133.54 412.453 133.555 412.453 133.57C412.453 133.585 412.453 133.599 412.453 133.614C412.453 133.629 412.453 133.644 412.453 133.659C412.453 133.674 412.453 133.689 412.453 133.704C412.453 133.719 412.453 133.734 412.453 133.749C412.453 133.764 412.453 133.78 412.453 133.795C412.453 133.81 412.453 133.825 412.453 133.84C412.453 133.855 412.453 133.87 412.453 133.885C412.453 133.9 412.453 133.915 412.453 133.93C412.453 133.945 412.453 133.961 412.453 133.976C412.453 133.991 412.453 134.006 412.453 134.021C412.453 134.036 412.453 134.051 412.453 134.067C412.453 134.082 412.453 134.097 412.453 134.112C412.453 134.127 412.453 134.142 412.453 134.158C412.453 134.173 412.453 134.188 412.453 134.203C412.453 134.219 412.453 134.234 412.453 134.249C412.453 134.264 412.453 134.279 412.453 134.295C412.453 134.31 412.453 134.325 412.453 134.341C412.453 134.356 412.453 134.371 412.453 134.386C412.453 134.402 412.453 134.417 412.453 134.432C412.453 134.448 412.453 134.463 412.453 134.478C412.453 134.494 412.453 134.509 412.453 134.524C412.453 134.54 412.453 134.555 412.453 134.57C412.453 134.586 412.453 134.601 412.453 134.616C412.453 134.632 412.453 134.647 412.453 134.663C412.453 134.678 412.453 134.693 412.453 134.709C412.453 134.724 412.453 134.74 412.453 134.755C412.453 134.771 412.453 134.786 412.453 134.802C412.453 134.817 412.453 134.832 412.453 134.848C412.453 134.863 412.453 134.879 412.453 134.894C412.453 134.91 412.453 134.925 412.453 134.941C412.453 134.956 412.453 134.972 412.453 134.987C412.453 135.003 412.453 135.018 412.453 135.034C412.453 135.049 412.453 135.065 412.453 135.081C412.453 135.096 412.453 135.112 412.453 135.127C412.453 135.143 412.453 135.158 412.453 135.174C412.453 135.189 412.453 135.205 412.453 135.221C412.453 135.236 412.453 135.252 412.453 135.267C412.453 135.283 412.453 135.299 412.453 135.314C412.453 135.33 412.453 135.346 412.453 135.361C412.453 135.377 412.453 135.393 412.453 135.408C412.453 135.424 412.453 135.439 412.453 135.455C412.453 135.471 412.453 135.486 412.453 135.502C412.453 135.518 412.453 135.534 412.453 135.549C412.453 135.565 412.453 135.581 412.453 135.596C412.453 135.612 412.453 135.628 412.453 135.644C412.453 135.659 412.453 135.675 412.453 135.691C412.453 135.706 412.453 135.722 412.453 135.738C412.453 135.754 412.453 135.769 412.453 135.785C412.453 135.801 412.453 135.817 412.453 135.833C412.453 135.848 412.453 135.864 412.453 135.88C412.453 135.896 412.453 135.912 412.453 135.927C412.453 135.943 412.453 135.959 412.453 135.975C412.453 135.991 412.453 136.006 412.453 136.022C412.453 136.038 412.453 136.054 412.453 136.07C412.453 136.086 412.453 136.101 412.453 136.117C412.453 136.133 412.453 136.149 412.453 136.165C412.453 136.181 412.453 136.197 412.453 136.213C412.453 136.228 412.453 136.244 412.453 136.26C412.453 136.276 412.453 136.292 412.453 136.308C412.453 136.324 412.453 136.34 412.453 136.356C412.453 136.372 412.453 136.387 412.453 136.403C412.453 136.419 412.453 136.435 412.453 136.451C412.453 136.467 412.453 136.483 412.453 136.499C412.453 136.515 412.453 136.531 412.453 136.547C412.453 136.563 412.453 136.579 412.453 136.595C412.453 136.611 412.453 136.627 412.453 136.643C412.453 136.659 412.453 136.675 412.453 136.691C412.453 136.707 412.453 136.723 412.453 136.739C412.453 136.755 412.453 136.771 412.453 136.787C412.453 136.803 412.453 136.819 412.453 136.835C412.453 136.851 412.453 136.867 412.453 136.883C412.453 136.899 412.453 136.915 412.453 136.931C412.453 136.947 412.453 136.963 412.453 136.979C412.453 136.995 412.453 137.011 412.453 137.027C412.453 137.043 412.453 137.06 412.453 137.076C412.453 137.092 412.453 137.108 412.453 137.124C412.453 137.14 412.453 137.156 412.453 137.172C412.453 137.188 412.453 137.204 412.453 137.22C412.453 137.237 412.453 137.253 412.453 137.269C412.453 137.285 412.453 137.301 412.453 137.317C412.453 137.333 412.453 137.349 412.453 137.365C412.453 137.382 412.453 137.398 412.453 137.414C412.453 137.43 412.453 137.446 412.453 137.462C412.453 137.478 412.453 137.495 412.453 137.511C412.453 137.527 412.453 137.543 412.453 137.559C412.453 137.575 412.453 137.592 412.453 137.608C412.453 137.624 412.453 137.64 412.453 137.656C412.453 137.672 412.453 137.689 412.453 137.705C412.453 137.721 412.453 137.737 412.453 137.753C412.453 137.77 412.453 137.786 412.453 137.802C412.453 137.818 412.453 137.834 412.453 137.851C412.453 137.867 412.453 137.883 412.453 137.899C412.453 137.915 412.453 137.932 412.453 137.948C412.453 137.964 412.453 137.98 412.453 137.997C412.453 138.013 412.453 138.029 412.453 138.045C412.453 138.061 412.453 138.078 412.453 138.094C412.453 138.11 412.453 138.126 412.453 138.143C412.453 138.159 412.453 138.175 412.453 138.191C412.453 138.208 412.453 138.224 412.453 138.24C412.453 138.256 412.453 138.273 412.453 138.289C412.453 138.305 412.453 138.321 412.453 138.338C412.453 138.354 412.453 138.37 412.453 138.387C412.453 138.403 412.453 138.419 412.453 138.435C412.453 138.452 412.453 138.468 412.453 138.484C412.453 138.501 412.453 138.517 412.453 138.533C412.453 138.549 412.453 138.566 412.453 138.582C412.453 138.598 412.453 138.615 412.453 138.631C412.453 138.647 412.453 138.663 412.453 138.68C412.453 138.696 412.453 138.712 412.453 138.729C412.453 138.745 412.453 138.761 412.453 138.778C412.453 138.794 412.453 138.81 412.453 138.827C412.453 138.843 412.453 138.859 412.453 138.876C412.453 138.892 412.453 138.908 412.453 138.925C412.453 138.941 412.453 138.957 412.453 138.974C412.453 138.99 412.453 139.006 412.453 139.023C412.453 139.039 412.453 139.055 412.453 139.072C412.453 139.088 412.453 139.104 412.453 139.121C412.453 139.137 412.453 139.153 412.453 139.17C412.453 139.186 412.453 139.202 412.453 139.219C412.453 139.235 412.453 139.251 412.453 139.268C412.453 139.284 412.453 139.3 412.453 139.317C412.453 139.333 412.453 139.349 412.453 139.366C412.453 139.382 412.453 139.398 412.453 139.415C412.453 139.431 412.453 139.447 412.453 139.464C412.453 139.48 412.453 139.497 412.453 139.513C412.453 139.529 412.453 139.546 412.453 139.562C412.453 139.578 412.453 139.595 412.453 139.611C412.453 139.627 412.453 139.644 412.453 139.66C412.453 139.677 412.453 139.693 412.453 139.709C412.453 139.726 412.453 139.742 412.453 139.758C412.453 139.775 412.453 139.791 412.453 139.807C412.453 139.824 412.453 139.84 412.453 139.857C412.453 139.873 412.453 139.889 412.453 139.906C412.453 139.922 412.453 139.938 412.453 139.955C412.453 139.971 412.453 139.988 412.453 140.004C412.453 140.02 412.453 140.037 412.453 140.053C412.453 140.069 412.453 140.086 412.453 140.102C412.453 140.118 412.453 140.135 412.453 140.151C412.453 140.168 412.453 140.184 412.453 140.2C412.453 140.217 412.453 140.233 412.453 140.249C412.453 140.266 412.453 140.282 412.453 140.299C412.453 140.315 412.453 140.331 412.453 140.348C412.453 140.364 412.453 140.38 412.453 140.397C412.453 140.413 412.453 140.43 412.453 140.446C412.453 140.462 412.453 140.479 412.453 140.495C412.453 140.511 412.453 140.528 412.453 140.544C412.453 140.56 412.453 140.577 412.453 140.593C412.453 140.61 412.453 140.626 412.453 140.642C412.453 140.659 412.453 140.675 412.453 140.691C412.453 140.708 412.453 140.724 412.453 140.74C412.453 140.757 412.453 140.773 412.453 140.79C412.453 140.806 412.453 140.822 412.453 140.839C412.453 140.855 412.453 140.871 412.453 140.888C412.453 140.904 412.453 140.92 412.453 140.937C412.453 140.953 412.453 140.969 412.453 140.986C412.453 141.002 412.453 141.018 412.453 141.035C412.453 141.051 412.453 141.068 412.453 141.084C412.453 141.1 412.453 141.117 412.453 141.133C412.453 141.149 412.453 141.166 412.453 141.182C412.453 141.198 412.453 141.215 412.453 141.231C412.453 141.247 412.453 141.264 412.453 141.28C412.453 141.296 412.453 141.313 412.453 141.329C412.453 141.345 412.453 141.362 412.453 141.378C412.453 141.394 412.453 141.411 412.453 141.427C412.453 141.443 412.453 141.459 412.453 141.476C412.453 141.492 412.453 141.508 412.453 141.525C412.453 141.541 412.453 141.557 412.453 141.574C412.453 141.59 412.453 141.606 412.453 141.623C412.453 141.639 412.453 141.655 412.453 141.671C412.453 141.688 412.453 141.704 412.453 141.72C412.453 141.737 412.453 141.753 412.453 141.769C412.453 141.786 412.453 141.802 412.453 141.818C412.453 141.834 412.453 141.851 412.453 141.867C412.453 141.883 412.453 141.899 412.453 141.916C412.453 141.932 412.453 141.948 412.453 141.965C412.453 141.981 412.453 141.997 412.453 142.013C412.453 142.03 412.453 142.046 412.453 142.062C412.453 142.078 412.453 142.095 412.453 142.111C412.453 142.127 412.453 142.143 412.453 142.16C412.453 142.176 412.453 142.192 412.453 142.208C412.453 142.225 412.453 142.241 412.453 142.257C412.453 142.273 412.453 142.29 412.453 142.306C412.453 142.322 412.453 142.338 412.453 142.354C412.453 142.371 412.453 142.387 412.453 142.403C412.453 142.419 412.453 142.435 412.453 142.452C412.453 142.468 412.453 142.484 412.453 142.5C412.453 142.516 412.453 142.533 412.453 142.549C412.453 142.565 412.453 142.581 412.453 142.597C412.453 142.614 412.453 142.63 412.453 142.646C412.453 142.662 412.453 142.678 412.453 142.694C412.453 142.711 412.453 142.727 412.453 142.743C412.453 142.759 412.453 142.775 412.453 142.791C412.453 142.808 412.453 142.824 412.453 142.84C412.453 142.856 412.453 142.872 412.453 142.888C412.453 142.904 412.453 142.921 412.453 142.937C412.453 142.953 412.453 142.969 412.453 142.985C412.453 143.001 412.453 143.017 412.453 143.033C412.453 143.049 412.453 143.066 412.453 143.082C412.453 143.098 412.453 143.114 412.453 143.13C412.453 143.146 412.453 143.162 412.453 143.178C412.453 143.194 412.453 143.21 412.453 143.226C412.453 143.243 412.453 143.259 412.453 143.275C412.453 143.291 412.453 143.307 412.453 143.323C412.453 143.339 412.453 143.355 412.453 143.371C412.453 143.387 412.453 143.403 412.453 143.419C412.453 143.435 412.453 143.451 412.453 143.467C412.453 143.483 412.453 143.499 412.453 143.515C412.453 143.531 412.453 143.547 412.453 143.563C412.453 143.579 412.453 143.595 412.453 143.611C412.453 143.627 412.453 143.643 412.453 143.659C412.453 143.675 412.453 143.691 412.453 143.707C412.453 143.723 412.453 143.739 412.453 143.755C412.453 143.771 412.453 143.787 412.453 143.803C412.453 143.819 412.453 143.835 412.453 143.851C412.453 143.867 412.453 143.883 412.453 143.899C412.453 143.914 412.453 143.93 412.453 143.946C412.453 143.962 412.453 143.978 412.453 143.994C412.453 144.01 412.453 144.026 412.453 144.042C412.453 144.058 412.453 144.073 412.453 144.089C412.453 144.105 412.453 144.121 412.453 144.137C412.453 144.153 412.453 144.169 412.453 144.185C412.453 144.2 412.453 144.216 412.453 144.232C412.453 144.248 412.453 144.264 412.453 144.28C412.453 144.295 412.453 144.311 412.453 144.327C412.453 144.343 412.453 144.359 412.453 144.374C412.453 144.39 412.453 144.406 412.453 144.422C412.453 144.438 412.453 144.453 412.453 144.469C412.453 144.485 412.453 144.501 412.453 144.516C412.453 144.532 412.453 144.548 412.453 144.564C412.453 144.579 412.453 144.595 412.453 144.611C412.453 144.627 412.453 144.642 412.453 144.658C412.453 144.674 412.453 144.69 412.453 144.705C412.453 144.721 412.453 144.737 412.453 144.752C412.453 144.768 412.453 144.784 412.453 144.799C412.453 144.815 412.453 144.831 412.453 144.846C412.453 144.862 412.453 144.878 412.453 144.893C412.453 144.909 412.453 144.925 412.453 144.94C412.453 144.956 412.453 144.972 412.453 144.987C412.453 145.003 412.453 145.018 412.453 145.034C412.453 145.05 412.453 145.065 412.453 145.081C412.453 145.096 412.453 145.112 412.453 145.128C412.453 145.143 412.453 145.159 412.453 145.174C412.453 145.19 412.453 145.205 412.453 145.221C412.453 145.236 412.453 145.252 412.453 145.268C412.453 145.283 412.453 145.299 412.453 145.314C412.453 145.33 412.453 145.345 412.453 145.361C412.453 145.376 412.453 145.392 412.453 145.407C412.453 145.423 412.453 145.438 412.453 145.453C412.453 145.469 412.453 145.484 412.453 145.5C412.453 145.515 412.453 145.531 412.453 145.546C412.453 145.562 412.453 145.577 412.453 145.592C412.453 145.608 412.453 145.623 412.453 145.639C412.453 145.654 412.453 145.669 412.453 145.685C412.453 145.7 412.453 145.715 412.453 145.731C412.453 145.746 412.453 145.762 412.453 145.777C412.453 145.792 412.453 145.808 412.453 145.823C412.453 145.838 412.453 145.854 412.453 145.869C412.453 145.884 412.453 145.899 412.453 145.915C412.453 145.93 412.453 145.945 412.453 145.961C412.453 145.976 412.453 145.991 412.453 146.006C412.453 146.022 412.453 146.037 412.453 146.052C412.453 146.067 412.453 146.083 412.453 146.098C412.453 146.113 412.453 146.128 412.453 146.143C412.453 146.159 412.453 146.174 412.453 146.189C412.453 146.204 412.453 146.219 412.453 146.234C412.453 146.25 412.453 146.265 412.453 146.28C412.453 146.295 412.453 146.31 412.453 146.325C412.453 146.34 412.453 146.356 412.453 146.371C412.453 146.386 412.453 146.401 412.453 146.416C412.453 146.431 412.453 146.446 412.453 146.461C412.453 146.476 412.453 146.491 412.453 146.506C412.453 146.521 412.453 146.536 412.453 146.551C412.453 146.566 412.453 146.581 412.453 146.596C412.453 146.611 412.453 146.626 412.453 146.641C412.453 146.656 412.453 146.671 412.453 146.686C412.453 146.701 412.453 146.716 412.453 146.731C412.453 146.746 412.453 146.761 412.453 146.776C412.453 146.791 412.453 146.806 412.453 146.821C412.453 146.836 412.453 146.85 412.453 146.865C412.453 146.88 412.453 146.895 412.453 146.91C412.453 146.925 412.453 146.94 412.453 146.954C412.453 146.969 412.453 146.984 412.453 146.999C412.453 147.014 412.453 147.029 412.453 147.043C412.453 147.058 412.453 147.073 412.453 147.088C412.453 147.102 412.453 147.117 412.453 147.132C412.453 147.147 412.453 147.161 412.453 147.176C412.453 147.191 412.453 147.206 412.453 147.22C412.453 147.235 412.453 147.25 412.453 147.264C412.453 147.279 412.453 147.294 412.453 147.308C412.453 147.323 412.453 147.338 412.453 147.352C412.453 147.367 412.453 147.382 412.453 147.396C412.453 147.411 412.453 147.425 412.453 147.44C412.453 147.455 412.453 147.469 412.453 147.484C412.453 147.498 412.453 147.513 412.453 147.527C412.453 147.542 412.453 147.556 412.453 147.571C412.453 147.586 412.453 147.6 412.453 147.615C412.453 147.629 412.453 147.643 412.453 147.658C412.453 147.672 412.453 147.687 412.453 147.701C412.453 147.716 412.453 147.73 412.453 147.745C412.453 147.759 412.453 147.773 412.453 147.788C412.453 147.802 412.453 147.817 412.453 147.831C412.453 147.845 412.453 147.86 412.453 147.874C412.453 147.888 412.453 147.903 412.453 147.917C412.453 147.931 412.453 147.946 412.453 147.96C412.453 147.974 412.453 147.989 412.453 148.003C412.453 148.017 412.453 148.032 412.453 148.046C412.453 148.06 412.453 148.074 412.453 148.088C412.453 148.103 412.453 148.117 412.453 148.131C412.453 148.145 412.453 148.16 412.453 148.174C412.453 148.188 412.453 148.202 412.453 148.216C412.453 148.23 412.453 148.244 412.453 148.259C412.453 148.273 412.453 148.287 412.453 148.301C412.453 148.315 412.453 148.329 412.453 148.343C412.453 148.357 412.453 148.371 412.453 148.385C412.453 148.399 412.453 148.413 412.453 148.427C412.453 148.441 412.453 148.455 412.453 148.469C412.453 148.483 412.453 148.497 412.453 148.511C412.453 148.525 412.453 148.539 412.453 148.553C412.453 148.567 412.453 148.581 412.453 148.595C412.453 148.609 412.453 148.623 412.453 148.637C412.453 148.651 412.453 148.664 412.453 148.678C412.453 148.692 412.453 148.706 412.453 148.72C412.453 148.734 412.453 148.747 412.453 148.761C412.453 148.775 412.453 148.789 412.453 148.803C412.453 148.816 412.453 148.83 412.453 148.844C412.453 148.858 412.453 148.871 412.453 148.885C412.453 148.899 412.453 148.913 412.453 148.926C412.453 148.94 412.453 148.954 412.453 148.967C412.453 148.981 412.453 148.995 412.453 149.008C412.453 149.022 412.453 149.035 412.453 149.049C412.453 149.063 412.453 149.076 412.453 149.09C412.453 149.103 412.453 149.117 412.453 149.13H416.453ZM416.453 126.938C416.453 126.428 416.578 125.482 416.971 124.552C417.359 123.633 417.937 122.889 418.743 122.475L416.916 118.917C415.022 119.89 413.911 121.516 413.286 122.995C412.666 124.464 412.453 125.945 412.453 126.938H416.453ZM418.743 122.475C420.197 121.729 422.591 120.227 424.777 118.826C427.031 117.381 429.081 116.033 430.008 115.473L427.94 112.049C426.954 112.645 424.782 114.071 422.618 115.458C420.386 116.889 418.165 118.276 416.916 118.917L418.743 122.475Z" fill="#1B0066"/>
<path d="M420.878 118.826C422.93 121.406 425.998 126.987 421.85 128.676C417.702 130.364 415.584 131.255 415.044 131.49" stroke="#1B0066" stroke-width="4"/>
</svg>
