<svg width="75" height="40" viewBox="0 0 75 40" fill="none" xmlns="http://www.w3.org/2000/svg">
<path d="M16.7196 34.8634V38.8787H15.1914V29.0407H18.6793C19.0838 29.015 19.4891 29.0745 19.8698 29.2155C20.2504 29.3564 20.598 29.5757 20.8906 29.8596C21.4078 30.432 21.6945 31.1795 21.6945 31.9551C21.6945 32.7307 21.4078 33.4783 20.8906 34.0507C20.5969 34.3325 20.249 34.5501 19.8685 34.69C19.4881 34.8298 19.0832 34.8888 18.6793 34.8634H16.7196ZM18.7512 33.4199C19.131 33.4199 19.4954 33.2672 19.764 32.9953C20.0326 32.7235 20.1835 32.3548 20.1835 31.9703C20.1835 31.5858 20.0326 31.2171 19.764 30.9453C19.4954 30.6734 19.131 30.5207 18.7512 30.5207H16.7196V33.4199H18.7512Z" fill="#4739F5"/>
<path d="M25.3189 29.0409H26.841V35.4155C26.841 36.762 27.5242 37.5384 28.8187 37.5384C30.1132 37.5384 30.7903 36.762 30.7903 35.4155V29.0409H32.3185V35.3428C32.347 35.8369 32.2744 36.3316 32.1053 36.7961C31.9362 37.2605 31.6742 37.6846 31.3357 38.0418C30.6386 38.6632 29.7416 39.0059 28.8127 39.0059C27.8838 39.0059 26.9868 38.6632 26.2897 38.0418C25.9543 37.6854 25.695 37.2629 25.5279 36.8006C25.3609 36.3384 25.2897 35.8462 25.3189 35.3549V29.0409Z" fill="#4739F5"/>
<path d="M41.2481 34.3602L44.0588 38.8788H42.2609L39.5282 34.4633H38.3895V38.8788H36.8613V29.0409H40.2653C42.0631 29.0409 43.1419 30.0659 43.1419 31.7582C43.1855 32.3493 43.0185 32.9368 42.6711 33.4141C42.3237 33.8914 41.8189 34.227 41.2481 34.3602ZM40.3072 33.0076C40.477 33.0196 40.6474 32.9961 40.8078 32.9385C40.9681 32.881 41.1151 32.7907 41.2396 32.6732C41.364 32.5558 41.4632 32.4136 41.5311 32.2557C41.5989 32.0977 41.6339 31.9274 41.6339 31.7551C41.6339 31.5829 41.5989 31.4125 41.5311 31.2546C41.4632 31.0966 41.364 30.9545 41.2396 30.837C41.1151 30.7195 40.9681 30.6292 40.8078 30.5717C40.6474 30.5142 40.477 30.4907 40.3072 30.5026H38.3895V33.0076H40.3072Z" fill="#4739F5"/>
<path d="M47.8887 29.0409H53.6538V30.5026H49.4168V32.9288H52.8388V34.3905H49.4168V37.4232H53.7976V38.8788H47.8887V29.0409Z" fill="#4739F5"/>
<path d="M7.32401 6.90233C9.20727 6.90233 10.734 5.35719 10.734 3.45117C10.734 1.54514 9.20727 0 7.32401 0C5.44075 0 3.91406 1.54514 3.91406 3.45117C3.91406 5.35719 5.44075 6.90233 7.32401 6.90233Z" fill="#1B0066"/>
<path d="M0 15.9217V23.3881H4.04519V15.9217C4.04519 15.0418 4.39056 14.1979 5.00532 13.5757C5.62009 12.9535 6.45389 12.604 7.32329 12.604C8.1927 12.604 9.0265 12.9535 9.64126 13.5757C10.256 14.1979 10.6014 15.0418 10.6014 15.9217V23.3881H14.6466V15.9217C14.6466 13.956 13.875 12.0707 12.5016 10.6808C11.1283 9.29077 9.26555 8.50989 7.32329 8.50989C5.38103 8.50989 3.51833 9.29077 2.14494 10.6808C0.771559 12.0707 0 13.956 0 15.9217Z" fill="#1B0066"/>
<path d="M36.4073 15.9212V23.3876H40.4465V15.9212C40.4276 15.4732 40.4984 15.0259 40.6548 14.6063C40.8111 14.1867 41.0498 13.8035 41.3563 13.4797C41.6629 13.1559 42.031 12.8982 42.4385 12.7222C42.846 12.5462 43.2845 12.4554 43.7276 12.4554C44.1707 12.4554 44.6092 12.5462 45.0167 12.7222C45.4242 12.8982 45.7923 13.1559 46.0989 13.4797C46.4054 13.8035 46.644 14.1867 46.8004 14.6063C46.9568 15.0259 47.0276 15.4732 47.0087 15.9212V23.3876H51.0479V15.9212C51.0759 14.9304 50.9073 13.944 50.552 13.0204C50.1967 12.0967 49.662 11.2546 48.9795 10.5437C48.297 9.83291 47.4805 9.26786 46.5784 8.88201C45.6763 8.49617 44.7069 8.29736 43.7276 8.29736C42.7483 8.29736 41.7789 8.49617 40.8768 8.88201C39.9747 9.26786 39.1582 9.83291 38.4757 10.5437C37.7932 11.2546 37.2585 12.0967 36.9032 13.0204C36.5479 13.944 36.3793 14.9304 36.4073 15.9212Z" fill="#1B0066"/>
<path d="M54.0801 16.0491C54.0789 17.5416 54.5151 19.001 55.3336 20.2426C56.152 21.4843 57.316 22.4523 58.6781 23.0243C60.0402 23.5963 61.5394 23.7466 62.986 23.4562C64.4325 23.1657 65.7614 22.4476 66.8047 21.3926C67.8479 20.3376 68.5585 18.9932 68.8467 17.5294C69.1348 16.0656 68.9875 14.5482 68.4234 13.1691C67.8593 11.79 66.9038 10.6113 65.6777 9.78191C64.4516 8.95256 63.01 8.50989 61.5352 8.50989C59.559 8.50989 57.6637 9.304 56.2658 10.7177C54.8678 12.1314 54.0817 14.049 54.0801 16.0491ZM64.9392 16.0491C64.9392 16.7319 64.739 17.3994 64.3641 17.9671C63.9891 18.5347 63.4562 18.9771 62.8328 19.2381C62.2093 19.4991 61.5234 19.5671 60.8618 19.4335C60.2001 19.2998 59.5926 18.9705 59.1159 18.4873C58.6393 18.004 58.315 17.3885 58.1841 16.7186C58.0532 16.0488 58.1216 15.3547 58.3806 14.7242C58.6396 14.0937 59.0776 13.5551 59.6391 13.1766C60.2007 12.7981 60.8605 12.5967 61.5352 12.5979C62.4385 12.5995 63.3043 12.9638 63.9425 13.6109C64.5807 14.2579 64.9392 15.1348 64.9392 16.0491Z" fill="#1B0066"/>
<path d="M17.6777 16.0491C17.6777 20.2099 20.7461 23.5883 24.5216 23.5883C25.2765 23.5895 26.0235 23.4316 26.7148 23.1246C27.4061 22.8176 28.0266 22.3682 28.5368 21.8051V23.3881H32.582V8.71005H28.5368V10.2931C28.0266 9.72996 27.4061 9.28056 26.7148 8.97355C26.0235 8.66653 25.2765 8.50862 24.5216 8.5099C20.7461 8.5099 17.6777 11.8883 17.6777 16.0491ZM28.5368 16.0491C28.5368 16.7319 28.3367 17.3994 27.9617 17.9671C27.5868 18.5348 27.0539 18.9771 26.4304 19.2381C25.807 19.4992 25.1211 19.5671 24.4594 19.4335C23.7978 19.2998 23.1902 18.9705 22.7136 18.4873C22.2369 18.004 21.9126 17.3885 21.7817 16.7186C21.6508 16.0488 21.7192 15.3547 21.9782 14.7242C22.2372 14.0937 22.6752 13.5551 23.2368 13.1766C23.7983 12.7981 24.4582 12.5967 25.1329 12.5979C26.0362 12.5995 26.902 12.9638 27.5402 13.6109C28.1784 14.2579 28.5368 15.1348 28.5368 16.0491Z" fill="#1B0066"/>
<path d="M71.2316 5.96057H70.451V8.15172H70.1324V5.96057H69.3535V5.69385H71.2316V5.96057Z" fill="#1B0066"/>
<path d="M72.0055 5.69385L72.7995 7.69931L73.5934 5.69385H74.0087V8.15172H73.6885V7.19457L73.7185 6.16145L72.9212 8.15172H72.676L71.8804 6.16652L71.9121 7.19457V8.15172H71.5919V5.69385H72.0055Z" fill="#1B0066"/>
</svg>
